…
1. Make a time series plot (i.e. type = "l") of the 5-minute interval (x-axis) and the average number of steps taken, averaged across all days (y-axis)
2. Which 5-minute interval, on average across all the days in the dataset, contains the maximum number of steps?


```r
# 1.Make a time series plot (i.e. type = "l") of the 5-minute interval (x-axis) and the average number of steps taken, averaged across all days (y-axis)
avg.steps.per.interval<-na.omit(activity)%>% 
  group_by(interval) %>%
  summarize(avg.steps = mean(steps,na.rm=TRUE))  
avg.steps.per.interval
```

```
## # A tibble: 288 × 2
##    interval avg.steps
##       <int>     <dbl>
## 1         0 1.7169811
## 2         5 0.3396226
## 3        10 0.1320755
## 4        15 0.1509434
## 5        20 0.0754717
## 6        25 2.0943396
## 7        30 0.5283019
## 8        35 0.8679245
## 9        40 0.0000000
## 10       45 1.4716981
## # ... with 278 more rows
```
…
